[gd_scene load_steps=2 format=3 uid="uid://ca51hfvyaaiqy"]

[ext_resource type="Script" path="res://entities/sound/sound-pool/SoundPool.cs" id="1_uwrol"]

[node name="SoundPool" type="Node"]
script = ExtResource("1_uwrol")
