[gd_scene load_steps=3 format=3 uid="uid://c65b6dm47ech6"]

[ext_resource type="Script" path="res://entities/gui/hud/Hud.cs" id="1_vo572"]
[ext_resource type="PackedScene" uid="uid://dhypbq4mvtapj" path="res://entities/gui/hud/fps/FPSLabel.tscn" id="2_wjdje"]

[node name="Hud" type="CanvasLayer"]
script = ExtResource("1_vo572")

[node name="FpsLabel" parent="." instance=ExtResource("2_wjdje")]
visible = false
text = "FPS: ERROR"
